Midterm Project
…
Below is a list of mean MAPE of each census tract. There are differences between the mean MAPE in each census tract, but the majority lies between 0.10 to 0.25. The max value of MAPE is 0.84 and occurs in Census Tract 132.01, which means our model does not fit well in this particular region. As is shown in the map, the MAPE in the center of the region is lower than the outside of the region, which means our model fit better in center city.

test_map = st_drop_geometry(boulder.test) %>%
    group_by(NAME) %>%
    summarize(MAPE = mean(price.APE, na.rm = T))
test_map

## # A tibble: 63 x 2
##    NAME                                           MAPE
##    <chr>                                         <dbl>
##  1 Census Tract 121.01, Boulder County, Colorado 0.197
##  2 Census Tract 121.02, Boulder County, Colorado 0.235
##  3 Census Tract 121.03, Boulder County, Colorado 0.206
##  4 Census Tract 121.04, Boulder County, Colorado 0.207
##  5 Census Tract 121.05, Boulder County, Colorado 0.182
##  6 Census Tract 122.01, Boulder County, Colorado 0.605
##  7 Census Tract 122.02, Boulder County, Colorado 0.236
##  8 Census Tract 122.03, Boulder County, Colorado 0.136
##  9 Census Tract 124.01, Boulder County, Colorado 0.162
## 10 Census Tract 125.01, Boulder County, Colorado 0.120
## # ... with 53 more rows
…
